finalprocessor/singlecycle.vcd
$date
	Wed Jul  5 15:44:05 2023
$end
$version
	Icarus Verilog
$end
$timescale
	1ps
$end
$scope module SingleCycleProcTest_v $end
$var wire 64 ! currentPC [63:0] $end
$var wire 64 " MemtoRegOut [63:0] $end
$var reg 1 # CLK $end
$var reg 1 $ Reset_L $end
$var reg 8 % passed [7:0] $end
$var reg 64 & startPC [63:0] $end
$var reg 16 ' watchdog [15:0] $end
$scope module uut $end
$var wire 1 # CLK $end
$var wire 1 $ resetl $end
$var wire 64 ( startpc [63:0] $end
$var wire 1 ) zero $end
$var wire 1 * uncond_branch $end
$var wire 3 + signop [2:0] $end
$var wire 5 , rn [4:0] $end
$var wire 5 - rm [4:0] $end
$var wire 1 . regwrite $end
$var wire 64 / regoutB [63:0] $end
$var wire 64 0 regoutA [63:0] $end
$var wire 1 1 reg2loc $end
$var wire 5 2 rd [4:0] $end
$var wire 11 3 opcode [10:0] $end
$var wire 64 4 nextpc [63:0] $end
$var wire 1 5 memwrite $end
$var wire 1 6 memread $end
$var wire 1 7 mem2reg $end
$var wire 32 8 instruction [31:0] $end
$var wire 64 9 extimm [63:0] $end
$var wire 64 : dmout [63:0] $end
$var wire 1 ; branch $end
$var wire 1 < alusrc $end
$var wire 64 = aluout [63:0] $end
$var wire 64 > aluinB [63:0] $end
$var wire 4 ? aluctrl [3:0] $end
$var wire 64 @ MemtoRegOut [63:0] $end
$var reg 64 A currentpc [63:0] $end
$scope module SignExtender $end
$var wire 26 B Imm26 [25:0] $end
$var wire 3 C Ctrl [2:0] $end
$var reg 64 D BusImm [63:0] $end
$upscope $end
$scope module alu $end
$var wire 64 E BusB [63:0] $end
$var wire 1 ) Zero $end
$var wire 64 F BusA [63:0] $end
$var wire 4 G ALUCtrl [3:0] $end
$var reg 64 H BusW [63:0] $end
$var reg 1 I of $end
$upscope $end
$scope module control $end
$var wire 11 J opcode [10:0] $end
$var reg 4 K aluop [3:0] $end
$var reg 1 < alusrc $end
$var reg 1 ; branch $end
$var reg 1 7 mem2reg $end
$var reg 1 6 memread $end
$var reg 1 5 memwrite $end
$var reg 1 1 reg2loc $end
$var reg 1 . regwrite $end
$var reg 3 L signop [2:0] $end
$var reg 1 * uncond_branch $end
$upscope $end
$scope module dm $end
$var wire 64 M Address [63:0] $end
$var wire 1 # Clock $end
$var wire 1 6 MemoryRead $end
$var wire 1 5 MemoryWrite $end
$var wire 64 N WriteData [63:0] $end
$var reg 64 O ReadData [63:0] $end
$scope task initset $end
$var reg 64 P addr [63:0] $end
$var reg 64 Q data [63:0] $end
$upscope $end
$upscope $end
$scope module imem $end
$var wire 64 R Address [63:0] $end
$var reg 32 S Data [31:0] $end
$upscope $end
$scope module nextpclogic $end
$var wire 1 ) ALUZero $end
$var wire 1 ; Branch $end
$var wire 64 T CurrentPC [63:0] $end
$var wire 64 U SignExtImm64 [63:0] $end
$var wire 1 * Uncondbranch $end
$var wire 1 V doBranch $end
$var wire 64 W shiftedImm [63:0] $end
$var reg 64 X NextPC [63:0] $end
$upscope $end
$scope module rf $end
$var wire 64 Y BusA [63:0] $end
$var wire 64 Z BusB [63:0] $end
$var wire 64 [ BusW [63:0] $end
$var wire 1 # Clk $end
$var wire 5 \ RA [4:0] $end
$var wire 5 ] RB [4:0] $end
$var wire 5 ^ RW [4:0] $end
$var wire 1 . RegWr $end
$upscope $end
$upscope $end
$scope task allPassed $end
$var reg 8 _ numTests [7:0] $end
$var reg 8 ` passed [7:0] $end
$upscope $end
$scope task passTest $end
$var reg 64 a actualOut [63:0] $end
$var reg 64 b expectedOut [63:0] $end
$var reg 8 c passed [7:0] $end
$var reg 257 d testType [256:0] $end
$upscope $end
$upscope $end
$enddefinitions $end
#0
$dumpvars
bx d
bx c
bx b
bx a
bx `
bx _
bx ^
bx ]
bx \
bx [
bx Z
bx Y
bx X
bx00 W
xV
bx U
bx T
bx S
bx R
b0 Q
b100000 P
bx O
bx N
bx M
bx L
bx K
bx J
xI
bx H
bx G
bx F
bx E
bx D
bx C
bx B
bx A
bx @
bx ?
bx >
bx =
x<
x;
bx :
bx 9
bx 8
x7
x6
x5
bx 4
bx 3
bx 2
x1
bx 0
bx /
x.
bx -
bx ,
bx +
x*
x)
b0 (
b0 '
b0 &
b0 %
1$
0#
bx "
bx !
$end
#60000
1#
#120000
b1 '
0#
#121000
0$
#180000
1#
#240000
b10 '
0#
#243000
0I
1)
b0 =
b0 H
b0 M
b0 W
b0 >
b0 E
b0 9
b0 D
b0 U
0V
b1 +
b1 C
b1 L
b10 ?
b10 G
b10 K
1.
1<
05
17
16
0;
0*
b0x00x ,
b0x00x ]
b10000000000001111101001 B
b11111000010 3
b11111000010 J
b0 0
b0 F
b0 Y
b11111 -
b11111 \
b1001 2
b1001 ^
b11111000010000000000001111101001 8
b11111000010000000000001111101001 S
b100 4
b100 X
b0 !
b0 A
b0 R
b0 T
#300000
b1 "
b1 @
b1 [
b1 :
b1 O
1$
1#
#360000
b11 '
0#
#363000
0)
b1000 =
b1000 H
b1000 M
b100000 W
b1000 >
b1000 E
b1000 9
b1000 D
b1000 U
b0x0x0 ,
b0x0x0 ]
b10000001000001111101010 B
b1010 2
b1010 ^
b11111000010000001000001111101010 8
b11111000010000001000001111101010 S
b1000 4
b1000 X
b100 !
b100 A
b100 R
b100 T
#420000
b1010 "
b1010 @
b1010 [
b1010 :
b1010 O
1#
#480000
b100 '
0#
#483000
b10000 =
b10000 H
b10000 M
b1000000 W
b10000 >
b10000 E
b10000 9
b10000 D
b10000 U
b0x0x1 ,
b0x0x1 ]
b10000010000001111101011 B
b1011 2
b1011 ^
b11111000010000010000001111101011 8
b11111000010000010000001111101011 S
b1100 4
b1100 X
b1000 !
b1000 A
b1000 R
b1000 T
#540000
b101 "
b101 @
b101 [
b101 :
b101 O
1#
#600000
b101 '
0#
#603000
b11000 =
b11000 H
b11000 M
b1100000 W
b11000 >
b11000 E
b11000 9
b11000 D
b11000 U
b0xx0x ,
b0xx0x ]
b10000011000001111101100 B
b1100 2
b1100 ^
b11111000010000011000001111101100 8
b11111000010000011000001111101100 S
b10000 4
b10000 X
b1100 !
b1100 A
b1100 R
b1100 T
#660000
b111111111011111010100111110111101010110110111110111011111111 "
b111111111011111010100111110111101010110110111110111011111111 @
b111111111011111010100111110111101010110110111110111011111111 [
b111111111011111010100111110111101010110110111110111011111111 :
b111111111011111010100111110111101010110110111110111011111111 O
1#
#720000
b110 '
0#
#723000
b100000 =
b100000 H
b100000 M
b10000000 W
b100000 >
b100000 E
b100000 9
b100000 D
b100000 U
b0xxxx ,
b0xxxx ]
b10000100000001111101101 B
b1101 2
b1101 ^
b11111000010000100000001111101101 8
b11111000010000100000001111101101 S
b10100 4
b10100 X
b10000 !
b10000 A
b10000 R
b10000 T
#780000
b0 "
b0 @
b0 [
b0 :
b0 O
1#
#840000
b111 '
0#
#843000
b101 >
b101 E
b1111 "
b1111 @
b1111 [
b101 /
b101 N
b101 Z
bx +
bx C
bx L
b1 ?
b1 G
b1 K
0<
07
06
01
b1011 ,
b1011 ]
b1111 =
b1111 H
b1111 M
b10000010110000000101001010 B
b10101010000 3
b10101010000 J
b1010 0
b1010 F
b1010 Y
b1010 -
b1010 \
b1010 2
b1010 ^
b10101010000010110000000101001010 8
b10101010000010110000000101001010 S
b11000 4
b11000 X
b10100 !
b10100 A
b10100 R
b10100 T
#900000
1#
#960000
b1000 '
0#
#963000
b1111 >
b1111 E
b1111 "
b1111 @
b1111 [
b0 ?
b0 G
b0 K
b1111 /
b1111 N
b1111 Z
b1010 ,
b1010 ]
b1111 =
b1111 H
b1111 M
b10000010100000000110001100 B
b10001010000 3
b10001010000 J
b1100 -
b1100 \
b1100 2
b1100 ^
b10001010000010100000000110001100 8
b10001010000010100000000110001100 S
b11100 4
b11100 X
b111111111011111010100111110111101010110110111110111011111111 0
b111111111011111010100111110111101010110110111110111011111111 F
b111111111011111010100111110111101010110110111110111011111111 Y
b11000 !
b11000 A
b11000 R
b11000 T
#1020000
1#
#1080000
b1001 '
0#
#1083000
b10000 W
b100 9
b100 D
b100 U
0V
b1111 >
b1111 E
b0xxxx "
b0xxxx @
b0xxxx [
b11 +
b11 C
b11 L
b111 ?
b111 G
b111 K
0.
x7
1;
11
b1111 /
b1111 N
b1111 Z
b1100 ,
b1100 ]
0)
b1111 =
b1111 H
b1111 M
b10001100 B
b10110100000 3
b10110100000 J
b100 -
b100 \
b10110100000000000000000010001100 8
b10110100000000000000000010001100 S
b100000 4
b100000 X
b11100 !
b11100 A
b11100 R
b11100 T
bx 0
bx F
bx Y
#1140000
1#
#1200000
b1010 '
0#
#1203000
0)
b1 =
b1 H
b1 M
b1 "
b1 @
b1 [
b1 >
b1 E
bx +
bx C
bx L
b10 ?
b10 G
b10 K
1.
07
0;
01
b1 /
b1 N
b1 Z
b1001 ,
b1001 ]
b11000010010000000110101101 B
b10001011000 3
b10001011000 J
b0 0
b0 F
b0 Y
b1101 -
b1101 \
b1101 2
b1101 ^
b10001011000010010000000110101101 8
b10001011000010010000000110101101 S
b100100 4
b100100 X
b100000 !
b100000 A
b100000 R
b100000 T
#1260000
1#
#1320000
b1011 '
0#
#1323000
b110 ?
b110 G
b110 K
b11000010010000000110001100 B
b11001011000 3
b11001011000 J
b1100 -
b1100 \
b1100 2
b1100 ^
b1110 "
b1110 @
b1110 [
b11001011000010010000000110001100 8
b11001011000010010000000110001100 S
b101000 4
b101000 X
b1110 =
b1110 H
b1110 M
b100100 !
b100100 A
b100100 R
b100100 T
b1111 0
b1111 F
b1111 Y
#1380000
1#
#1440000
b1100 '
0#
#1443000
b1111111111111111111111111111111111111111111111111111111111110100 W
b1111111111111111111111111111111111111111111111111111111111111101 9
b1111111111111111111111111111111111111111111111111111111111111101 D
b1111111111111111111111111111111111111111111111111111111111111101 U
1V
bx >
bx E
b10 +
b10 C
b10 L
bx ?
bx G
bx K
0.
x<
x7
x;
1*
x1
bx /
bx N
bx Z
b111x1 ,
b111x1 ]
1I
bx "
bx @
bx [
b11111111111111111111111101 B
b10111111 3
b10111111 J
b11111 -
b11111 \
b11101 2
b11101 ^
b1111111111111111111111111111111111111111111111111111111111111111 =
b1111111111111111111111111111111111111111111111111111111111111111 H
b1111111111111111111111111111111111111111111111111111111111111111 M
b10111111111111111111111111101 8
b10111111111111111111111111101 S
b11100 4
b11100 X
b0 0
b0 F
b0 Y
b101000 !
b101000 A
b101000 R
b101000 T
#1500000
1#
#1560000
b1101 '
0#
#1563000
b10000 W
b100 9
b100 D
b100 U
b0xxx0 "
b0xxx0 @
b0xxx0 [
b1110 =
b1110 H
b1110 M
b1110 >
b1110 E
0V
b1110 /
b1110 N
b1110 Z
b11 +
b11 C
b11 L
b111 ?
b111 G
b111 K
0<
1;
0*
11
b1100 ,
b1100 ]
b10001100 B
b10110100000 3
b10110100000 J
bx 0
bx F
bx Y
b100 -
b100 \
b1100 2
b1100 ^
b10110100000000000000000010001100 8
b10110100000000000000000010001100 S
b100000 4
b100000 X
b11100 !
b11100 A
b11100 R
b11100 T
#1620000
1#
#1680000
b1110 '
0#
#1683000
0I
b10 =
b10 H
b10 M
b10 "
b10 @
b10 [
b1 >
b1 E
bx +
bx C
bx L
b10 ?
b10 G
b10 K
1.
07
0;
01
b1 /
b1 N
b1 Z
b1001 ,
b1001 ]
b11000010010000000110101101 B
b10001011000 3
b10001011000 J
b1 0
b1 F
b1 Y
b1101 -
b1101 \
b1101 2
b1101 ^
b10001011000010010000000110101101 8
b10001011000010010000000110101101 S
b100100 4
b100100 X
b100000 !
b100000 A
b100000 R
b100000 T
#1740000
1#
#1800000
b1111 '
0#
#1803000
b110 ?
b110 G
b110 K
b11000010010000000110001100 B
b11001011000 3
b11001011000 J
b1100 -
b1100 \
b1100 2
b1100 ^
b1101 "
b1101 @
b1101 [
b11001011000010010000000110001100 8
b11001011000010010000000110001100 S
b101000 4
b101000 X
b1101 =
b1101 H
b1101 M
b100100 !
b100100 A
b100100 R
b100100 T
b1110 0
b1110 F
b1110 Y
#1860000
1#
#1920000
b10000 '
0#
#1923000
b1111111111111111111111111111111111111111111111111111111111110100 W
b1111111111111111111111111111111111111111111111111111111111111101 9
b1111111111111111111111111111111111111111111111111111111111111101 D
b1111111111111111111111111111111111111111111111111111111111111101 U
1V
bx >
bx E
b10 +
b10 C
b10 L
bx ?
bx G
bx K
0.
x<
x7
x;
1*
x1
bx /
bx N
bx Z
b111x1 ,
b111x1 ]
1I
bx "
bx @
bx [
b11111111111111111111111101 B
b10111111 3
b10111111 J
b11111 -
b11111 \
b11101 2
b11101 ^
b1111111111111111111111111111111111111111111111111111111111111111 =
b1111111111111111111111111111111111111111111111111111111111111111 H
b1111111111111111111111111111111111111111111111111111111111111111 M
b10111111111111111111111111101 8
b10111111111111111111111111101 S
b11100 4
b11100 X
b0 0
b0 F
b0 Y
b101000 !
b101000 A
b101000 R
b101000 T
#1980000
1#
#2040000
b10001 '
0#
#2043000
b10000 W
b100 9
b100 D
b100 U
b0xx0x "
b0xx0x @
b0xx0x [
b1101 =
b1101 H
b1101 M
b1101 >
b1101 E
0V
b1101 /
b1101 N
b1101 Z
b11 +
b11 C
b11 L
b111 ?
b111 G
b111 K
0<
1;
0*
11
b1100 ,
b1100 ]
b10001100 B
b10110100000 3
b10110100000 J
bx 0
bx F
bx Y
b100 -
b100 \
b1100 2
b1100 ^
b10110100000000000000000010001100 8
b10110100000000000000000010001100 S
b100000 4
b100000 X
b11100 !
b11100 A
b11100 R
b11100 T
#2100000
1#
#2160000
b10010 '
0#
#2163000
0I
b11 =
b11 H
b11 M
b11 "
b11 @
b11 [
b1 >
b1 E
bx +
bx C
bx L
b10 ?
b10 G
b10 K
1.
07
0;
01
b1 /
b1 N
b1 Z
b1001 ,
b1001 ]
b11000010010000000110101101 B
b10001011000 3
b10001011000 J
b10 0
b10 F
b10 Y
b1101 -
b1101 \
b1101 2
b1101 ^
b10001011000010010000000110101101 8
b10001011000010010000000110101101 S
b100100 4
b100100 X
b100000 !
b100000 A
b100000 R
b100000 T
#2220000
1#
#2280000
b10011 '
0#
#2283000
b110 ?
b110 G
b110 K
b11000010010000000110001100 B
b11001011000 3
b11001011000 J
b1100 -
b1100 \
b1100 2
b1100 ^
b1100 "
b1100 @
b1100 [
b11001011000010010000000110001100 8
b11001011000010010000000110001100 S
b101000 4
b101000 X
b1100 =
b1100 H
b1100 M
b100100 !
b100100 A
b100100 R
b100100 T
b1101 0
b1101 F
b1101 Y
#2340000
1#
#2400000
b10100 '
0#
#2403000
b1111111111111111111111111111111111111111111111111111111111110100 W
b1111111111111111111111111111111111111111111111111111111111111101 9
b1111111111111111111111111111111111111111111111111111111111111101 D
b1111111111111111111111111111111111111111111111111111111111111101 U
1V
bx >
bx E
b10 +
b10 C
b10 L
bx ?
bx G
bx K
0.
x<
x7
x;
1*
x1
bx /
bx N
bx Z
b111x1 ,
b111x1 ]
1I
bx "
bx @
bx [
b11111111111111111111111101 B
b10111111 3
b10111111 J
b11111 -
b11111 \
b11101 2
b11101 ^
b1111111111111111111111111111111111111111111111111111111111111111 =
b1111111111111111111111111111111111111111111111111111111111111111 H
b1111111111111111111111111111111111111111111111111111111111111111 M
b10111111111111111111111111101 8
b10111111111111111111111111101 S
b11100 4
b11100 X
b0 0
b0 F
b0 Y
b101000 !
b101000 A
b101000 R
b101000 T
#2460000
1#
#2520000
b10101 '
0#
#2523000
b10000 W
b100 9
b100 D
b100 U
b0xx00 "
b0xx00 @
b0xx00 [
b1100 =
b1100 H
b1100 M
b1100 >
b1100 E
0V
b1100 /
b1100 N
b1100 Z
b11 +
b11 C
b11 L
b111 ?
b111 G
b111 K
0<
1;
0*
11
b1100 ,
b1100 ]
b10001100 B
b10110100000 3
b10110100000 J
bx 0
bx F
bx Y
b100 -
b100 \
b1100 2
b1100 ^
b10110100000000000000000010001100 8
b10110100000000000000000010001100 S
b100000 4
b100000 X
b11100 !
b11100 A
b11100 R
b11100 T
#2580000
1#
#2640000
b10110 '
0#
#2643000
0I
b100 =
b100 H
b100 M
b100 "
b100 @
b100 [
b1 >
b1 E
bx +
bx C
bx L
b10 ?
b10 G
b10 K
1.
07
0;
01
b1 /
b1 N
b1 Z
b1001 ,
b1001 ]
b11000010010000000110101101 B
b10001011000 3
b10001011000 J
b11 0
b11 F
b11 Y
b1101 -
b1101 \
b1101 2
b1101 ^
b10001011000010010000000110101101 8
b10001011000010010000000110101101 S
b100100 4
b100100 X
b100000 !
b100000 A
b100000 R
b100000 T
#2700000
1#
#2760000
b10111 '
0#
#2763000
b110 ?
b110 G
b110 K
b11000010010000000110001100 B
b11001011000 3
b11001011000 J
b1100 -
b1100 \
b1100 2
b1100 ^
b1011 "
b1011 @
b1011 [
b11001011000010010000000110001100 8
b11001011000010010000000110001100 S
b101000 4
b101000 X
b1011 =
b1011 H
b1011 M
b100100 !
b100100 A
b100100 R
b100100 T
b1100 0
b1100 F
b1100 Y
#2820000
1#
#2880000
b11000 '
0#
#2883000
b1111111111111111111111111111111111111111111111111111111111110100 W
b1111111111111111111111111111111111111111111111111111111111111101 9
b1111111111111111111111111111111111111111111111111111111111111101 D
b1111111111111111111111111111111111111111111111111111111111111101 U
1V
bx >
bx E
b10 +
b10 C
b10 L
bx ?
bx G
bx K
0.
x<
x7
x;
1*
x1
bx /
bx N
bx Z
b111x1 ,
b111x1 ]
1I
bx "
bx @
bx [
b11111111111111111111111101 B
b10111111 3
b10111111 J
b11111 -
b11111 \
b11101 2
b11101 ^
b1111111111111111111111111111111111111111111111111111111111111111 =
b1111111111111111111111111111111111111111111111111111111111111111 H
b1111111111111111111111111111111111111111111111111111111111111111 M
b10111111111111111111111111101 8
b10111111111111111111111111101 S
b11100 4
b11100 X
b0 0
b0 F
b0 Y
b101000 !
b101000 A
b101000 R
b101000 T
#2940000
1#
#3000000
b11001 '
0#
#3003000
b10000 W
b100 9
b100 D
b100 U
b0x0xx "
b0x0xx @
b0x0xx [
b1011 =
b1011 H
b1011 M
b1011 >
b1011 E
0V
b1011 /
b1011 N
b1011 Z
b11 +
b11 C
b11 L
b111 ?
b111 G
b111 K
0<
1;
0*
11
b1100 ,
b1100 ]
b10001100 B
b10110100000 3
b10110100000 J
bx 0
bx F
bx Y
b100 -
b100 \
b1100 2
b1100 ^
b10110100000000000000000010001100 8
b10110100000000000000000010001100 S
b100000 4
b100000 X
b11100 !
b11100 A
b11100 R
b11100 T
#3060000
1#
#3120000
b11010 '
0#
#3123000
0I
b101 =
b101 H
b101 M
b101 "
b101 @
b101 [
b1 >
b1 E
bx +
bx C
bx L
b10 ?
b10 G
b10 K
1.
07
0;
01
b1 /
b1 N
b1 Z
b1001 ,
b1001 ]
b11000010010000000110101101 B
b10001011000 3
b10001011000 J
b100 0
b100 F
b100 Y
b1101 -
b1101 \
b1101 2
b1101 ^
b10001011000010010000000110101101 8
b10001011000010010000000110101101 S
b100100 4
b100100 X
b100000 !
b100000 A
b100000 R
b100000 T
#3180000
1#
#3240000
b11011 '
0#
#3243000
b110 ?
b110 G
b110 K
b11000010010000000110001100 B
b11001011000 3
b11001011000 J
b1100 -
b1100 \
b1100 2
b1100 ^
b1010 "
b1010 @
b1010 [
b11001011000010010000000110001100 8
b11001011000010010000000110001100 S
b101000 4
b101000 X
b1010 =
b1010 H
b1010 M
b100100 !
b100100 A
b100100 R
b100100 T
b1011 0
b1011 F
b1011 Y
#3300000
1#
#3360000
b11100 '
0#
#3363000
b1111111111111111111111111111111111111111111111111111111111110100 W
b1111111111111111111111111111111111111111111111111111111111111101 9
b1111111111111111111111111111111111111111111111111111111111111101 D
b1111111111111111111111111111111111111111111111111111111111111101 U
1V
bx >
bx E
b10 +
b10 C
b10 L
bx ?
bx G
bx K
0.
x<
x7
x;
1*
x1
bx /
bx N
bx Z
b111x1 ,
b111x1 ]
1I
bx "
bx @
bx [
b11111111111111111111111101 B
b10111111 3
b10111111 J
b11111 -
b11111 \
b11101 2
b11101 ^
b1111111111111111111111111111111111111111111111111111111111111111 =
b1111111111111111111111111111111111111111111111111111111111111111 H
b1111111111111111111111111111111111111111111111111111111111111111 M
b10111111111111111111111111101 8
b10111111111111111111111111101 S
b11100 4
b11100 X
b0 0
b0 F
b0 Y
b101000 !
b101000 A
b101000 R
b101000 T
#3420000
1#
#3480000
b11101 '
0#
#3483000
b10000 W
b100 9
b100 D
b100 U
b0x0x0 "
b0x0x0 @
b0x0x0 [
b1010 =
b1010 H
b1010 M
b1010 >
b1010 E
0V
b1010 /
b1010 N
b1010 Z
b11 +
b11 C
b11 L
b111 ?
b111 G
b111 K
0<
1;
0*
11
b1100 ,
b1100 ]
b10001100 B
b10110100000 3
b10110100000 J
bx 0
bx F
bx Y
b100 -
b100 \
b1100 2
b1100 ^
b10110100000000000000000010001100 8
b10110100000000000000000010001100 S
b100000 4
b100000 X
b11100 !
b11100 A
b11100 R
b11100 T
#3540000
1#
#3600000
b11110 '
0#
#3603000
b110 =
b110 H
b110 M
0I
b110 "
b110 @
b110 [
b1 >
b1 E
bx +
bx C
bx L
b10 ?
b10 G
b10 K
1.
07
0;
01
b1 /
b1 N
b1 Z
b1001 ,
b1001 ]
b11000010010000000110101101 B
b10001011000 3
b10001011000 J
b101 0
b101 F
b101 Y
b1101 -
b1101 \
b1101 2
b1101 ^
b10001011000010010000000110101101 8
b10001011000010010000000110101101 S
b100100 4
b100100 X
b100000 !
b100000 A
b100000 R
b100000 T
#3660000
1#
#3720000
b11111 '
0#
#3723000
b110 ?
b110 G
b110 K
b11000010010000000110001100 B
b11001011000 3
b11001011000 J
b1100 -
b1100 \
b1100 2
b1100 ^
b1001 "
b1001 @
b1001 [
b11001011000010010000000110001100 8
b11001011000010010000000110001100 S
b101000 4
b101000 X
b1001 =
b1001 H
b1001 M
b100100 !
b100100 A
b100100 R
b100100 T
b1010 0
b1010 F
b1010 Y
#3780000
1#
#3840000
b100000 '
0#
#3843000
b1111111111111111111111111111111111111111111111111111111111110100 W
b1111111111111111111111111111111111111111111111111111111111111101 9
b1111111111111111111111111111111111111111111111111111111111111101 D
b1111111111111111111111111111111111111111111111111111111111111101 U
1V
bx >
bx E
b10 +
b10 C
b10 L
bx ?
bx G
bx K
0.
x<
x7
x;
1*
x1
bx /
bx N
bx Z
b111x1 ,
b111x1 ]
1I
bx "
bx @
bx [
b11111111111111111111111101 B
b10111111 3
b10111111 J
b11111 -
b11111 \
b11101 2
b11101 ^
b1111111111111111111111111111111111111111111111111111111111111111 =
b1111111111111111111111111111111111111111111111111111111111111111 H
b1111111111111111111111111111111111111111111111111111111111111111 M
b10111111111111111111111111101 8
b10111111111111111111111111101 S
b11100 4
b11100 X
b0 0
b0 F
b0 Y
b101000 !
b101000 A
b101000 R
b101000 T
#3900000
1#
#3960000
b100001 '
0#
#3963000
b10000 W
b100 9
b100 D
b100 U
b0x00x "
b0x00x @
b0x00x [
b1001 =
b1001 H
b1001 M
b1001 >
b1001 E
0V
b1001 /
b1001 N
b1001 Z
b11 +
b11 C
b11 L
b111 ?
b111 G
b111 K
0<
1;
0*
11
b1100 ,
b1100 ]
b10001100 B
b10110100000 3
b10110100000 J
bx 0
bx F
bx Y
b100 -
b100 \
b1100 2
b1100 ^
b10110100000000000000000010001100 8
b10110100000000000000000010001100 S
b100000 4
b100000 X
b11100 !
b11100 A
b11100 R
b11100 T
#4020000
1#
#4080000
b100010 '
0#
#4083000
0I
b111 =
b111 H
b111 M
b111 "
b111 @
b111 [
b1 >
b1 E
bx +
bx C
bx L
b10 ?
b10 G
b10 K
1.
07
0;
01
b1 /
b1 N
b1 Z
b1001 ,
b1001 ]
b11000010010000000110101101 B
b10001011000 3
b10001011000 J
b110 0
b110 F
b110 Y
b1101 -
b1101 \
b1101 2
b1101 ^
b10001011000010010000000110101101 8
b10001011000010010000000110101101 S
b100100 4
b100100 X
b100000 !
b100000 A
b100000 R
b100000 T
#4140000
1#
#4200000
b100011 '
0#
#4203000
b110 ?
b110 G
b110 K
b11000010010000000110001100 B
b11001011000 3
b11001011000 J
b1100 -
b1100 \
b1100 2
b1100 ^
b1000 "
b1000 @
b1000 [
b11001011000010010000000110001100 8
b11001011000010010000000110001100 S
b101000 4
b101000 X
b1000 =
b1000 H
b1000 M
b100100 !
b100100 A
b100100 R
b100100 T
b1001 0
b1001 F
b1001 Y
#4260000
1#
#4320000
b100100 '
0#
#4323000
b1111111111111111111111111111111111111111111111111111111111110100 W
b1111111111111111111111111111111111111111111111111111111111111101 9
b1111111111111111111111111111111111111111111111111111111111111101 D
b1111111111111111111111111111111111111111111111111111111111111101 U
1V
bx >
bx E
b10 +
b10 C
b10 L
bx ?
bx G
bx K
0.
x<
x7
x;
1*
x1
bx /
bx N
bx Z
b111x1 ,
b111x1 ]
1I
bx "
bx @
bx [
b11111111111111111111111101 B
b10111111 3
b10111111 J
b11111 -
b11111 \
b11101 2
b11101 ^
b1111111111111111111111111111111111111111111111111111111111111111 =
b1111111111111111111111111111111111111111111111111111111111111111 H
b1111111111111111111111111111111111111111111111111111111111111111 M
b10111111111111111111111111101 8
b10111111111111111111111111101 S
b11100 4
b11100 X
b0 0
b0 F
b0 Y
b101000 !
b101000 A
b101000 R
b101000 T
#4380000
1#
#4440000
b100101 '
0#
#4443000
b10000 W
b100 9
b100 D
b100 U
b0x000 "
b0x000 @
b0x000 [
b1000 =
b1000 H
b1000 M
b1000 >
b1000 E
0V
b1000 /
b1000 N
b1000 Z
b11 +
b11 C
b11 L
b111 ?
b111 G
b111 K
0<
1;
0*
11
b1100 ,
b1100 ]
b10001100 B
b10110100000 3
b10110100000 J
bx 0
bx F
bx Y
b100 -
b100 \
b1100 2
b1100 ^
b10110100000000000000000010001100 8
b10110100000000000000000010001100 S
b100000 4
b100000 X
b11100 !
b11100 A
b11100 R
b11100 T
#4500000
1#
#4560000
b100110 '
0#
#4563000
0I
b1000 =
b1000 H
b1000 M
b1000 "
b1000 @
b1000 [
b1 >
b1 E
bx +
bx C
bx L
b10 ?
b10 G
b10 K
1.
07
0;
01
b1 /
b1 N
b1 Z
b1001 ,
b1001 ]
b11000010010000000110101101 B
b10001011000 3
b10001011000 J
b111 0
b111 F
b111 Y
b1101 -
b1101 \
b1101 2
b1101 ^
b10001011000010010000000110101101 8
b10001011000010010000000110101101 S
b100100 4
b100100 X
b100000 !
b100000 A
b100000 R
b100000 T
#4620000
1#
#4680000
b100111 '
0#
#4683000
b110 ?
b110 G
b110 K
b11000010010000000110001100 B
b11001011000 3
b11001011000 J
b1100 -
b1100 \
b1100 2
b1100 ^
b111 "
b111 @
b111 [
b11001011000010010000000110001100 8
b11001011000010010000000110001100 S
b101000 4
b101000 X
b111 =
b111 H
b111 M
b100100 !
b100100 A
b100100 R
b100100 T
b1000 0
b1000 F
b1000 Y
#4740000
1#
#4800000
b101000 '
0#
#4803000
b1111111111111111111111111111111111111111111111111111111111110100 W
b1111111111111111111111111111111111111111111111111111111111111101 9
b1111111111111111111111111111111111111111111111111111111111111101 D
b1111111111111111111111111111111111111111111111111111111111111101 U
1V
bx >
bx E
b10 +
b10 C
b10 L
bx ?
bx G
bx K
0.
x<
x7
x;
1*
x1
bx /
bx N
bx Z
b111x1 ,
b111x1 ]
1I
bx "
bx @
bx [
b11111111111111111111111101 B
b10111111 3
b10111111 J
b11111 -
b11111 \
b11101 2
b11101 ^
b1111111111111111111111111111111111111111111111111111111111111111 =
b1111111111111111111111111111111111111111111111111111111111111111 H
b1111111111111111111111111111111111111111111111111111111111111111 M
b10111111111111111111111111101 8
b10111111111111111111111111101 S
b11100 4
b11100 X
b0 0
b0 F
b0 Y
b101000 !
b101000 A
b101000 R
b101000 T
#4860000
1#
#4920000
b101001 '
0#
#4923000
b10000 W
b100 9
b100 D
b100 U
b0xxx "
b0xxx @
b0xxx [
b111 =
b111 H
b111 M
b111 >
b111 E
0V
b111 /
b111 N
b111 Z
b11 +
b11 C
b11 L
b111 ?
b111 G
b111 K
0<
1;
0*
11
b1100 ,
b1100 ]
b10001100 B
b10110100000 3
b10110100000 J
bx 0
bx F
bx Y
b100 -
b100 \
b1100 2
b1100 ^
b10110100000000000000000010001100 8
b10110100000000000000000010001100 S
b100000 4
b100000 X
b11100 !
b11100 A
b11100 R
b11100 T
#4980000
1#
#5040000
b101010 '
0#
#5043000
0I
b1001 =
b1001 H
b1001 M
b1001 "
b1001 @
b1001 [
b1 >
b1 E
bx +
bx C
bx L
b10 ?
b10 G
b10 K
1.
07
0;
01
b1 /
b1 N
b1 Z
b1001 ,
b1001 ]
b11000010010000000110101101 B
b10001011000 3
b10001011000 J
b1000 0
b1000 F
b1000 Y
b1101 -
b1101 \
b1101 2
b1101 ^
b10001011000010010000000110101101 8
b10001011000010010000000110101101 S
b100100 4
b100100 X
b100000 !
b100000 A
b100000 R
b100000 T
#5100000
1#
#5160000
b101011 '
0#
#5163000
b110 ?
b110 G
b110 K
b11000010010000000110001100 B
b11001011000 3
b11001011000 J
b1100 -
b1100 \
b1100 2
b1100 ^
b110 "
b110 @
b110 [
b11001011000010010000000110001100 8
b11001011000010010000000110001100 S
b101000 4
b101000 X
b110 =
b110 H
b110 M
b100100 !
b100100 A
b100100 R
b100100 T
b111 0
b111 F
b111 Y
#5220000
1#
#5280000
b101100 '
0#
